<svg height="122.41" width="384.58" xmlns="http://www.w3.org/2000/svg" xmlns:xlink="http://www.w3.org/1999/xlink">
	<marker id="a" orient="auto" overflow="visible" refX="0" refY="0">
		<path d="m8.72 4.03-10.93-4.01 10.93-4.02c-1.75 2.37-1.74 5.62 0 8.03z" fill="#f00" fill-rule="evenodd" stroke="#f00" stroke-linejoin="round" stroke-width=".63" transform="scale(-.6)"/>
	</marker>
	<marker id="b" orient="auto" overflow="visible" refX="0" refY="0">
		<path d="m8.72 4.03-10.93-4.01 10.93-4.02c-1.75 2.37-1.74 5.62 0 8.03z" fill="#f00" fill-rule="evenodd" stroke="#f00" stroke-linejoin="round" stroke-width=".63" transform="scale(.6)"/>
	</marker>
	<marker id="c" orient="auto" overflow="visible" refX="0" refY="0">
		<path d="m8.72 4.03-10.93-4.01 10.93-4.02c-1.75 2.37-1.74 5.62 0 8.03z" fill="#0000c0" fill-rule="evenodd" stroke="#0000c0" stroke-linejoin="round" stroke-width=".63" transform="scale(-.6)"/>
	</marker>
	<linearGradient id="d" gradientUnits="userSpaceOnUse" x1=".002" x2=".002" y1="33.346" y2="12.754">
		<stop offset="0" stop-color="#fff"/>
		<stop offset=".0051" stop-color="#fefcfc"/>
		<stop offset=".1497" stop-color="#e6a4a4"/>
		<stop offset=".277" stop-color="#d35e5e"/>
		<stop offset=".3823" stop-color="#c62b2b"/>
		<stop offset=".4615" stop-color="#bd0c0c"/>
		<stop offset=".5056" stop-color="#ba0000"/>
		<stop offset=".7077" stop-color="#d86e6e"/>
		<stop offset=".9099" stop-color="#f4d6d6"/>
		<stop offset="1" stop-color="#fff"/>
	</linearGradient>
	<linearGradient id="e" gradientUnits="userSpaceOnUse" x1=".002" x2=".002" y1="29.098" y2=".002">
		<stop offset=".0056" stop-color="#89a4b6"/>
		<stop offset=".5" stop-color="#fff"/>
		<stop offset="1" stop-color="#89a4b6"/>
	</linearGradient>
	<g transform="translate(-109.78 -269.99)">
		<path d="m294.14 328.58h42.81" fill="none" marker-start="url(#b)" stroke="#f00" stroke-linecap="round" stroke-width="2"/>
		<path d="m151.25 320.09h182.7" fill="none" marker-end="url(#a)" stroke="#f00" stroke-linecap="round" stroke-width="1.74"/>
		<g enable-background="new" transform="matrix(-1 0 0 -1 171.46 343.15)">
			<path d="m.38.38h56.69v12.76h-56.69z" fill="#302b33"/>
			<path d="m.38 32.97h56.69v12.76h-56.69z" fill="#302b33"/>
			<g stroke="#000" stroke-width=".75">
				<path d="m.38 13.13h56.69v19.84h-56.69z" fill="url(#d)"/>
				<path d="m57.07 3.21h4.25v39.69h-4.25z"/>
				<path d="m.38.38h56.69v45.35h-56.69z" fill="none"/>
			</g>
		</g>
		<g enable-background="new" stroke="#000" stroke-width=".75" transform="matrix(1.49 0 0 1.49 337.95 299.21)">
			<path d="m.38.38h9.92v28.35h-9.92z" fill="url(#e)"/>
			<path d="m7.46.38h2.84v28.35h-2.84z"/>
		</g>
		<text font-family="Arial" x="118.65" y="283.03"><tspan font-family="Arial" font-size="16" x="118.65" y="283.03">Laser</tspan></text>
		<text font-family="Arial" x="325.5" y="283.03"><tspan font-size="16" x="325.5" y="283.03">Mirror</tspan></text>
		<path d="m345.83 344.73-.47 16.44c-.25 8.96 4.54 14.26 7.78 13.82 6.42-.87 12.58-2.06 16.19-6.64 3.27-4.14-2.14-13.04 2.45-15.63 8.12-4.58 25.88 10.56 25.88 10.56" style="fill:none;stroke:#0000c0;stroke-width:2;stroke-linecap:round;stroke-miterlimit:5;stroke-dasharray:8 8;marker-end:url(#c)"/>
		<path d="m328.14 443.3a4.14 4.14 0 1 1 0-.07l-4.14.07z" fill="#0000c7" transform="translate(21.9 -99.98)"/>
		<text font-family="Arial" x="361.98" y="388.82"><tspan font-size="18" x="361.98" y="388.82">position detector</tspan></text>
		<path d="m193.05 294.41h92.19v49.22h-92.19z" fill="none" opacity=".9" stroke="#000" stroke-dasharray="6 6" stroke-width="2"/>
		<text font-family="Arial" x="213.21" y="281.63"><tspan font-size="16" x="213.21" y="281.63">Space</tspan></text>
	</g>
</svg>
